…
Write your narrative here

\`9. (2 points)

The code below selects the records of the ten most common pet names and
assigns them to the variable top_10_names. (Refer to Task4 above).

``` r
top_10_names <- seattlepets %>% 
filter(animal_name %in% c( "Lucy"  , "Charlie" , "Luna" , "Bella" , "Max"    , 
                           "Daisy" , "Molly"   , "Jack" , "Lily"  , "Stella" ))
top_10_names
```

    ## # A tibble: 2,974 × 7
    ##    license_issue_date license_number animal_name species primary_breed          
    ##    <date>             <chr>          <chr>       <chr>   <chr>                  
    ##  1 2018-11-25         S120480        Charlie     Dog     Retriever, Labrador    
    ##  2 2018-11-03         829563         Max         Dog     Retriever, Labrador    
    ##  3 2018-10-29         732106         Lily        Cat     Domestic Shorthair     
    ##  4 2018-11-25         895808         Max         Cat     Domestic Shorthair     
    ##  5 2018-11-26         834841         Daisy       Dog     Terrier, American Pit …
    ##  6 2018-12-13         8003804        Charlie     Dog     Border Collie          
    ##  7 2018-11-06         S125292        Jack        Cat     Domestic Shorthair     
    ##  8 2018-11-01         835179         Stella      Dog     Retriever, Labrador    
    ##  9 2018-12-14         950094         Molly       Dog     Retriever, Labrador    
    ## 10 2018-11-24         S137301        Lucy        Dog     Hound                  
    ## # ℹ 2,964 more rows
    ## # ℹ 2 more variables: secondary_breed <chr>, zip_code <chr>
…
